{
    "author": ["Charged"],
    "install_msg": "Thanks for installing!",
    "name": "morefornugget",
    "disabled": false,
    "short": "Extra cog for the MPS server.",
    "description": "Extra cog for the MPS server.",
    "tags": [],
    "requirements": [],
    "hidden": false,
    "end_user_data_statement": "This cog stores no personal data."
}